# data file for LTP pattern generator
#
#                     M
#		      u
#		      l
#		      t
#		      i
#		      p
#		      l
#  ICC C     TT     O i
# Bnaa aBBB BTT     r c
# uhll lGGG GYYT TTLb i
# siRR Rooo oPPT TT1i t
# yb21 0321 0103 21At y
#
#

  0000 0000 0000 0010 1
  0000 0000 0000 0000 9
  0000 0000 0000 0010 1
  0000 0000 0010 0000 9
  0000 0000 0000 0010 1
  0000 0000 0100 0000 9
  0000 0000 0000 0010 1
  0000 0000 0110 0000 9
  0000 0000 0000 0010 1
  0000 0000 0000 0000 9
  0000 0000 0000 0010 1
  0000 0000 0010 0000 9
  0000 0000 0000 0010 1
  0000 0000 0100 0000 9
  0000 0000 0000 0010 1
  0000 0000 0110 0000 9
  0000 0000 0000 0010 1
  0000 0000 0000 0000 9
  0000 0000 0000 0010 1
  0000 0000 0010 0000 9
  0000 0000 0000 0010 1
  0000 0000 0100 0000 9
  0000 0000 0000 0010 1
  0000 0000 0110 0000 9
  0000 0000 0000 0010 1
  0000 0000 0000 0000 9
  0000 0000 0000 0010 1
  0000 0000 0010 0000 9
  0000 0000 0000 0010 1
  0000 0000 0100 0000 9
  0000 0000 0000 0010 1
  0000 0000 0110 0000 9
  0000 0000 0000 0010 1
  0000 0000 0000 0000 9
  0000 0000 0000 0010 1
  0000 0000 0010 0000 9
  0000 0000 0000 0010 1
  0000 0000 0100 0000 9
  0000 0000 0000 0010 1
  0000 0000 0110 0000 9
  0000 0000 0000 0010 1
  0000 0000 0000 0000 9
  0000 0000 0000 0010 1
  0000 0000 0010 0000 9
  0000 0000 0000 0010 1
  0000 0000 0100 0000 9
  0000 0000 0000 0010 1
  0000 0000 0110 0000 9
  0000 0000 0000 0010 1
  0000 0000 0000 0000 9
  0000 0000 0000 0010 1
  0000 0000 0010 0000 9
  0000 0000 0000 0010 1
  0000 0000 0100 0000 9
  0000 0000 0000 0010 1
  0000 0000 0110 0000 9
  0000 0000 0000 0010 1
  0000 0000 0000 0000 9
  0000 0000 0000 0010 1
  0000 0000 0010 0000 9
  0000 0000 0000 0010 1
  0000 0000 0100 0000 9
  0000 0000 0000 0010 1
  0000 0000 0110 0000 9
  0000 0000 0000 0010 1
  0000 0000 0000 0000 9
  0000 0000 0000 0010 1
  0000 0000 0010 0000 9
  0000 0000 0000 0010 1
  0000 0000 0100 0000 9
  0000 0000 0000 0010 1
  0000 0000 0110 0000 9
  0000 0000 0000 0010 1
  0000 0000 0000 0000 9
  0000 0000 0000 0010 1
  0000 0000 0010 0000 9
  0000 0000 0000 0010 1
  0000 0000 0100 0000 9
  0000 0000 0000 0010 1
  0000 0000 0110 0000 9
  0000 0000 0000 0010 1
  0000 0000 0000 0000 9
  0000 0000 0000 0010 1
  0000 0000 0010 0000 9
  0000 0000 0000 0010 1
  0000 0000 0100 0000 9
  0000 0000 0000 0010 1
  0000 0000 0110 0000 9
  0000 0000 0000 0010 1
  0000 0000 0000 0000 9
  0000 0000 0000 0010 1
  0000 0000 0010 0000 9
  0000 0000 0000 0010 1
  0000 0000 0100 0000 9
  0000 0000 0000 0010 1
  0000 0000 0110 0000 9
  0000 0000 0000 0010 1
  0000 0000 0000 0000 9
  0000 0000 0000 0010 1
  0000 0000 0010 0000 9
  0000 0000 0000 0010 1
  0000 0000 0100 0000 9
  0000 0000 0000 0010 1
  0000 0000 0110 0000 9
  0000 0000 0000 0010 1
  0000 0000 0000 0000 9
  0000 0000 0000 0010 1
  0000 0000 0010 0000 9
  0000 0000 0000 0010 1
  0000 0000 0100 0000 9
  0000 0000 0000 0010 1
  0000 0000 0110 0000 9
  0000 0000 0000 0010 1
  0000 0000 0000 0000 9
  0000 0000 0000 0010 1
  0000 0000 0010 0000 9
  0000 0000 0000 0010 1
  0000 0000 0100 0000 9
  0000 0000 0000 0010 1
  0000 0000 0110 0000 9
  0000 0000 0000 0010 1
  0000 0000 0000 0000 9
  0000 0000 0000 0010 1
  0000 0000 0010 0000 9
  0000 0000 0000 0010 1
  0000 0000 0100 0000 9
  0000 0000 0000 0010 1
  0000 0000 0110 0000 9
  0000 0000 0000 0010 1
  0000 0000 0000 0000 9
  0000 0000 0000 0010 1
  0000 0000 0010 0000 9
  0000 0000 0000 0010 1
  0000 0000 0100 0000 9
  0000 0000 0000 0010 1
  0000 0000 0110 0000 9
  0000 0000 0000 0010 1
  0000 0000 0000 0000 9
  0000 0000 0000 0010 1
  0000 0000 0010 0000 9
  0000 0000 0000 0010 1
  0000 0000 0100 0000 9
  0000 0000 0000 0010 1
  0000 0000 0110 0000 9
  0000 0000 0000 0010 1
  0000 0000 0000 0000 9
  0000 0000 0000 0010 1
  0000 0000 0010 0000 9
  0000 0000 0000 0010 1
  0000 0000 0100 0000 9
  0000 0000 0000 0010 1
  0000 0000 0110 0000 9
  0000 0000 0000 0010 1
  0000 0000 0000 0000 9
  0000 0000 0000 0010 1
  0000 0000 0010 0000 9
  0000 0000 0000 0010 1
  0000 0000 0100 0000 9
  0000 0000 0000 0010 1
  0000 0000 0110 0000 9
  0000 0000 0000 0010 1
  0000 0000 0000 0000 9
  0000 0000 0000 0010 1
  0000 0000 0010 0000 9
  0000 0000 0000 0010 1
  0000 0000 0100 0000 9
  0000 0000 0000 0010 1
  0000 0000 0110 0000 9
  0000 0000 0000 0010 1
  0000 0000 0000 0000 9
  0000 0000 0000 0010 1
  0000 0000 0010 0000 9
  0000 0000 0000 0010 1
  0000 0000 0100 0000 9
  0000 0000 0000 0010 1
  0000 0000 0110 0000 9
  0000 0000 0000 0010 1
  0000 0000 0000 0000 9
  0000 0000 0000 0010 1
  0000 0000 0010 0000 9
  0000 0000 0000 0010 1
  0000 0000 0100 0000 9
  0000 0000 0000 0010 1
  0000 0000 0110 0000 9
  0000 0000 0000 0010 1
  0000 0000 0000 0000 9
  0000 0000 0000 0010 1
  0000 0000 0010 0000 9
  0000 0000 0000 0010 1
  0000 0000 0100 0000 9
  0000 0000 0000 0010 1
  0000 0000 0110 0000 9
  0000 0000 0000 0010 1
  0000 0000 0000 0000 9
  0000 0000 0000 0010 1
  0000 0000 0010 0000 9
  0000 0000 0000 0010 1
  0000 0000 0100 0000 9
  0000 0000 0000 0010 1
  0000 0000 0110 0000 9
  0000 0000 0000 0010 1
  0000 0000 0000 0000 9
  0000 0000 0000 0010 1
  0000 0000 0010 0000 9
  0000 0000 0000 0010 1
  0000 0000 0100 0000 9
  0000 0000 0000 0010 1
  0000 0000 0110 0000 9
  0000 0000 0000 0010 1
  0000 0000 0000 0000 9
  0000 0000 0000 0010 1
  0000 0000 0010 0000 9
  0000 0000 0000 0010 1
  0000 0000 0100 0000 9
  0000 0000 0000 0010 1
  0000 0000 0110 0000 9
  0000 0000 0000 0010 1
  0000 0000 0000 0000 9
  0000 0000 0000 0010 1
  0000 0000 0010 0000 9
  0000 0000 0000 0010 1
  0000 0000 0100 0000 9
  0000 0000 0000 0010 1
  0000 0000 0110 0000 9
  0000 0000 0000 0010 1
  0000 0000 0000 0000 9
  0000 0000 0000 0010 1
  0000 0000 0010 0000 9
  0000 0000 0000 0010 1
  0000 0000 0100 0000 9
  0000 0000 0000 0010 1
  0000 0000 0110 0000 9
  0000 0000 0000 0010 1
  0000 0000 0000 0000 9
  0000 0000 0000 0010 1
  0000 0000 0010 0000 9
  0000 0000 0000 0010 1
  0000 0000 0100 0000 9
  0000 0000 0000 0010 1
  0000 0000 0110 0000 9
  0000 0000 0000 0010 1
  0000 0000 0000 0000 9
  0000 0000 0000 0010 1
  0000 0000 0010 0000 9
  0000 0000 0000 0010 1
  0000 0000 0100 0000 9
  0000 0000 0000 0010 1
  0000 0000 0110 0000 9
  0000 0000 0000 0010 1
  0000 0000 0000 0000 9
  0000 0000 0000 0010 1
  0000 0000 0010 0000 9
  0000 0000 0000 0010 1
  0000 0000 0100 0000 9
  0000 0000 0000 0010 1
  0000 0000 0110 0000 9
